2D:
................................
a.xy  =         m.x,         m.y
b.xy  =         m.x,         m.y
--------------------------------
a.wh  = (j.x - m.x),         m.h
b.wh  =         m.w, (j.y - m.y)
                      		                
d.xy  =               (j.x + j.w),                       m.y
c.xy  =                       m.x,               (j.y + j.h)
------------------------------------------------------------
d.wh  = (m.x + m.w) - (j.x + j.w),                       m.h
c.wh  =                       m.w, (m.y + m.h) - (j.y + j.h)

3D:
.......................................................................................
a.xyz =         m.x,         m.y,         m.z
c.xyz =         m.x,         m.y,         m.z
b.xyz =         m.x,         m.y,         m.z
---------------------------------------------
a.whd = (j.x - m.x),         m.h,         m.d
c.whd =         m.w, (j.y - m.y),         m.d
b.whd =         m.w,         m.h, (j.z - m.z)

e.xyz =               (j.x + j.w),                       m.y,                       m.z
f.xyz =                       m.x,               (j.y + j.h),                       m.z
d.xyz =                       m.x,                       m.y,               (j.z + j.d)
---------------------------------------------------------------------------------------
e.whd = (m.x + m.w) - (j.x + j.w),                       m.h,                       m.d
f.whd =                       m.w, (m.y + m.h) - (j.y + j.h),                       m.d
d.whd =                       m.w,                       m.h, (m.z + m.d) - (j.z + j.d)

